Análisis exploratorio de datos
…
y excluimos las palabras vacías

data(stop_words)
palabras <- palabras %>% 
  anti_join(stop_words)

## Joining, by = "word"

Calculamos la frecuencia de palabras en orden descendente

palabras %>% 
  count(word, sort = TRUE)

## # A tibble: 41,620 x 2
##    word          n
##    <chr>     <int>
##  1 product    6062
##  2 time       3970
##  3 love       3453
##  4 bought     3199
##  5 toy        2945
##  6 hair       2767
##  7 2          2608
##  8 buy        2182
##  9 easy       2067
## 10 recommend  2055
## # … with 41,610 more rows
…
y finalmente, unimos ambos conjuntos:

palabras_cat1 <- left_join(palabras_cat1,total_palabras)

## Joining, by = "cat1"

palabras_cat1

## # A tibble: 80,977 x 4
##    cat1                 word      n  total
##    <chr>                <chr> <int>  <int>
##  1 toys games           the   21883 439719
##  2 health personal care the   17285 389766
##  3 health personal care i     14290 389766
##  4 baby products        the   13892 270027
##  5 toys games           and   13484 439719
##  6 toys games           it    12198 439719
##  7 toys games           to    11334 439719
##  8 health personal care and   11128 389766
##  9 pet supplies         the   11057 218906
## 10 toys games           a     10711 439719
## # … with 80,967 more rows
…
palabras_cat1 <- left_join(palabras_cat1,total_palabras)

## Joining, by = c("cat1", "total")

Mejor si lo ordenamos en orden descendente:

palabras_cat1 <- palabras_cat1 %>% 
  bind_tf_idf(word, cat1, n) %>% 
  select(-total) %>%
  arrange(desc(tf_idf))

palabras_cat1

## # A tibble: 80,977 x 6
##    cat1                 word       n       tf   idf   tf_idf
##    <chr>                <chr>  <int>    <dbl> <dbl>    <dbl>
##  1 toys games           toy     2385 0.00542  0.182 0.000989
##  2 health personal care shaver   337 0.000865 1.10  0.000950
##  3 pet supplies         litter   500 0.00228  0.405 0.000926
##  4 grocery gourmet food sauce    162 0.00133  0.693 0.000925
##  5 grocery gourmet food flour     50 0.000412 1.79  0.000738
##  6 health personal care braun    157 0.000403 1.79  0.000722
##  7 health personal care shave    399 0.00102  0.693 0.000710
##  8 toys games           game    1647 0.00375  0.182 0.000683
##  9 baby products        crib     166 0.000615 1.10  0.000675
## 10 grocery gourmet food flavor   441 0.00363  0.182 0.000662
## # … with 80,967 more rows
…
4 Relaciones entre palabras n-gramas y correlaciones

Tokenizamos por bigramas esta vez:

bigramas <- text_cat1 %>%
  unnest_tokens(bigram, text, token = "ngrams", n = 2)

y calculamos su frequencia

bigramas %>% 
  count(bigram, sort = TRUE)

## # A tibble: 443,357 x 2
##    bigram           n
##    <chr>        <int>
##  1 of the        5744
##  2 in the        4886
##  3 i have        4865
##  4 it is         4822
##  5 is a          3568
##  6 on the        3369
##  7 this is       3245
##  8 and i         3177
##  9 this product  3042
## 10 and the       2963
## # … with 443,347 more rows

los separamos para poder excluir los que contienen palabras vacías

bigramas_separados <- bigramas %>% 
  separate(bigram, c("palabra1","palabra2"), sep = " ") 

bigramas_filtrados <- bigramas_separados %>% 
  filter(!palabra1 %in% stop_words$word) %>% 
  filter(!palabra2 %in% stop_words$word)

bigramas_filtrados

## # A tibble: 161,671 x 5
##    product_id cat1                    id palabra1   palabra2   
##    <chr>      <chr>                <int> <chr>      <chr>      
##  1 B0000017QN health personal care  9869 sedona     suite.i    
##  2 B0000017QN health personal care  9869 suite.i    love       
##  3 B0000017QN health personal care  9869 soothing   synthesizer
##  4 B0000017QN health personal care  9869 muted      joy        
##  5 B0000017QN health personal care  9869 joy        comparable 
##  6 B0000017QN health personal care  9869 wedding    notices    
##  7 B0000017QN health personal care  9869 local      paper      
##  8 B0000017QN health personal care  9869 album      delivers   
##  9 B0000017QN health personal care  9869 substitute federal    
## 10 B0000017QN health personal care  9869 federal    holiday    
## # … with 161,661 more rows

y calculamos su frecuencia

cuenta_bigramas <- bigramas_filtrados %>% 
  count(palabra1,palabra2,sort = TRUE)

cuenta_bigramas

## # A tibble: 111,801 x 3
##    palabra1 palabra2        n
##    <chr>    <chr>       <int>
##  1 highly   recommend     673
##  2 1        2             343
##  3 car      seat          227
##  4 6        months        196
##  5 son      loves         177
##  6 litter   box           153
##  7 5        stars         152
##  8 3        months        151
##  9 customer service       139
## 10 highly   recommended   127
## # … with 111,791 more rows

Los unimos de nuevo y calculamos su tf_idf

bigramas_unidos <- bigramas_filtrados %>% 
  unite(bigram, palabra1, palabra2, sep = " ")

bigramas_tf_idf <- bigramas_unidos %>%
  count(cat1,bigram) %>% 
  bind_tf_idf(bigram,cat1,n) %>% 
  arrange(desc(tf_idf))

bigramas_tf_idf

## # A tibble: 122,550 x 6
##    cat1                 bigram            n      tf   idf  tf_idf
##    <chr>                <chr>         <int>   <dbl> <dbl>   <dbl>
##  1 pet supplies         litter box      152 0.00740  1.10 0.00813
##  2 grocery gourmet food gluten free      76 0.00493  1.10 0.00542
##  3 beauty               flat iron        68 0.00302  1.79 0.00541
##  4 baby products        baby dry         60 0.00260  1.79 0.00466
##  5 pet supplies         dog food         47 0.00229  1.79 0.00410
##  6 beauty               hair dryer       51 0.00227  1.79 0.00406
##  7 beauty               curling iron     44 0.00195  1.79 0.00350
##  8 baby products        avent bottles    42 0.00182  1.79 0.00326
##  9 pet supplies         gentle leader    36 0.00175  1.79 0.00314
## 10 pet supplies         cats love        35 0.00170  1.79 0.00305
## # … with 122,540 more rows

5 Modelado de temas usando LDA

Regresamos a la lista de palabras con su frecuencia y sin palabras vacías:

palabras_tidy <- text_cat1 %>%
  unnest_tokens(word,text) %>%
   anti_join(stop_words) %>% 
  count(id,word, sort = TRUE) 

## Joining, by = "word"

palabras_tidy

## # A tibble: 479,761 x 3
##       id word       n
##    <int> <chr>  <int>
##  1   274 eacute    38
##  2 14702 bed       34
##  3 15303 hair      26
##  4  7518 seat      24
##  5 16935 bath      24
##  6 10290 hair      23
##  7  8784 unit      22
##  8 15685 food      21
##  9 18170 baby      21
## 10  3037 tea       20
## # … with 479,751 more rows
Para hacer el LDA se usa la librería tm que requiere la información en un formato de matriz de términos del documento. Eso es lo que hacemos en este paso:

dtm_palabras <- palabras_tidy %>% 
  cast_tdm(id,word,n)

Con la función LDA creamos un modelo de 6 términos:

review_lda <- LDA(dtm_palabras, k = 6, control = list(seed = 1234))

Ahora, se pueden examinar las probabilidades asociadas a cada palabra por tópico

review_topics <- tidy(review_lda, matrix = "beta")
review_topics

## # A tibble: 249,720 x 3
##    topic term       beta
##    <int> <chr>     <dbl>
##  1     1 eacute 1.31e-11
##  2     2 eacute 1.63e- 9
##  3     3 eacute 5.64e- 4
##  4     4 eacute 3.35e-11
##  5     5 eacute 1.79e-12
##  6     6 eacute 4.73e-11
##  7     1 bed    6.22e- 4
##  8     2 bed    3.10e- 5
##  9     3 bed    6.66e- 4
## 10     4 bed    3.77e- 3
## # … with 249,710 more rows

Podemos hallar cuales son las palabras más comunes por cada tema:

review_top_terms <- review_topics %>%
  group_by(topic) %>%
  top_n(5, beta) %>%
  ungroup() %>%
  arrange(topic, -beta)

review_top_terms

## # A tibble: 30 x 3
##    topic term       beta
##    <int> <chr>     <dbl>
##  1     1 time    0.0126 
##  2     1 product 0.0121 
##  3     1 toy     0.00902
##  4     1 play    0.00837
##  5     1 price   0.00595
##  6     2 toy     0.0124 
##  7     2 product 0.00924
##  8     2 love    0.00883
##  9     2 time    0.00701
## 10     2 day     0.00657
## # … with 20 more rows
…
y al unirlo con las cat1_classifications podemos ver cuales observaciones se encuentran incorrectamente clasificadas:

cat1_classifications %>% 
  inner_join(cat1_topics, by = "topic") %>% 
  filter(cat1 != consensus)

## # A tibble: 14,888 x 8
##    document topic gamma    id product_id text                 cat1     consensus
##    <chr>    <int> <dbl> <dbl> <chr>      <chr>                <chr>    <chr>    
##  1 19059        1 0.201 19059 B000CEM36I "Cascade manufactur… health … toys gam…
##  2 9780         1 0.207  9780 B0002KHTZ2 "I know a lot of pe… health … toys gam…
##  3 11176        1 0.205 11176 B000KVWNEK "I moved back home … pet sup… toys gam…
##  4 14898        1 0.384 14898 B000JZ5CQS "As of August 17, 2… grocery… toys gam…
##  5 19457        1 0.198 19457 B0000649E1 "My aunt uses these… baby pr… toys gam…
##  6 9911         1 0.193  9911 B000P26UEI "We bought the fill… baby pr… toys gam…
##  7 14997        1 0.303 14997 B0009YUEG2 "I love this litter… pet sup… toys gam…
##  8 3527         1 0.271  3527 B000EM6PC6 "There are several … grocery… toys gam…
##  9 9409         1 0.209  9409 B0002G3UY0 "I've drank a few b… grocery… toys gam…
## 10 9694         1 0.183  9694 B000CMF1A0 "I was SO excited t… grocery… toys gam…
## # … with 14,878 more rows

cat1_classifications

## # A tibble: 19,992 x 7
##    document topic gamma    id product_id text                          cat1     
##    <chr>    <int> <dbl> <dbl> <chr>      <chr>                         <chr>    
##  1 14964        1 0.215 14964 B0006N8XZK "I initially bought this toy… toys gam…
##  2 19059        1 0.201 19059 B000CEM36I "Cascade manufactures a grea… health p…
##  3 9780         1 0.207  9780 B0002KHTZ2 "I know a lot of people comp… health p…
##  4 10992        1 0.251 10992 B000ETREQA "My kids (4 and 7) did learn… toys gam…
##  5 11176        1 0.205 11176 B000KVWNEK "I moved back home to my mot… pet supp…
##  6 14898        1 0.384 14898 B000JZ5CQS "As of August 17, 2008; all … grocery …
##  7 19457        1 0.198 19457 B0000649E1 "My aunt uses these diapers … baby pro…
##  8 9911         1 0.193  9911 B000P26UEI "We bought the filled baby b… baby pro…
##  9 14997        1 0.303 14997 B0009YUEG2 "I love this litter because.… pet supp…
## 10 17948        1 0.224 17948 B000PC51LQ "The Smart Splash Sail Away … toys gam…
## # … with 19,982 more rows
…
